Group,n,mean,median,STD,SEM,95% CI on the mean,DOF,statistical test,F statistic,p value,significant
"590nm, 73uW/mm2",5,1.353657640430427,1.2715968718699178,0.3936060462445264,0.17602597515153737,"(0.8072448501944902, 1.9000704306663638)",12.0,ANOVA,13.382348388821377,0.0008799725583047805,YES
"656nm, 1076uW/mm2",5,1.4030814517921961,1.437591876827486,0.3243030013283477,0.145032711255478,"(0.952876711472673, 1.8532861921117192)",,,,,
"656nm, 166uW/mm2",5,0.3584964839845185,0.301830833378797,0.22660285427061894,0.10133987720891649,"(0.043921291202763446, 0.6730716767662736)",,,,,
